MBE/sim/transcript
# vsim -c -L /software/dk/nangate45/verilog/msim6.2g top 
# Start time: 22:21:12 on Apr 15,2021
# ** Note: (vsim-8009) Loading existing optimized design _opt1
# //  Questa Sim-64
# //  Version 10.7c linux_x86_64 Aug 17 2018
# //
# //  Copyright 1991-2018 Mentor Graphics Corporation
# //  All Rights Reserved.
# //
# //  QuestaSim and its associated documentation contain trade
# //  secrets and commercial or financial information that are the property of
# //  Mentor Graphics Corporation and are privileged, confidential,
# //  and exempt from disclosure under the Freedom of Information Act,
# //  5 U.S.C. Section 552. Furthermore, this information
# //  is prohibited from disclosure under the Trade Secrets Act,
# //  18 U.S.C. Section 1905.
# //
# Loading sv_std.std
# Loading mtiUvm.uvm_pkg
# Loading work.top_sv_unit(fast)
# Loading work.top(fast)
# Loading work.DUT(fast)
# Loading mtiUvm.questa_uvm_pkg(fast)
# Loading work.dut_if(fast)
# Loading std.standard
# Loading std.textio(body)
# Loading ieee.std_logic_1164(body)
# Loading ieee.numeric_std(body)
# Loading work.dadda_functions(body)
# Loading work.mbe(structural)#1
# ** Warning: (vsim-3839) Variable '/top/out/data', driven via a port connection, is multiply driven. See ../src/DUT.sv(3).
#    Time: 0 ns  Iteration: 0  Instance: /top/sum File: ../src/DUT.sv Line: 9
# ** Warning: (vsim-3764) Stand-alone call to function 'begin_tr' treated as implicit void cast.
#    Time: 0 ns  Iteration: 0  Region: /top_sv_unit::driver File: ../tb/driver.sv Line: 67
# Loading /software/mentor/questa10.7c/questasim/uvm-1.1d/linux_x86_64/uvm_dpi.so
# ----------------------------------------------------------------
# UVM-1.1d
# (C) 2007-2013 Mentor Graphics Corporation
# (C) 2007-2013 Cadence Design Systems, Inc.
# (C) 2006-2013 Synopsys, Inc.
# (C) 2011-2013 Cypress Semiconductor Corp.
# ----------------------------------------------------------------
# 
#   ***********       IMPORTANT RELEASE NOTES         ************
# 
#   You are using a version of the UVM library that has been compiled
#   with `UVM_NO_DEPRECATED undefined.
#   See http://www.eda.org/svdb/view.php?id=3313 for more details.
# 
#   You are using a version of the UVM library that has been compiled
#   with `UVM_OBJECT_MUST_HAVE_CONSTRUCTOR undefined.
#   See http://www.eda.org/svdb/view.php?id=3770 for more details.
# 
#       (Specify +UVM_NO_RELNOTES to turn off this notice)
# 
# UVM_INFO verilog_src/questa_uvm_pkg-1.2/src/questa_uvm_pkg.sv(215) @ 0: reporter [Questa UVM] QUESTA_UVM-1.2.3
# UVM_INFO verilog_src/questa_uvm_pkg-1.2/src/questa_uvm_pkg.sv(216) @ 0: reporter [Questa UVM]  questa_uvm::init(+struct)
# UVM_INFO @ 0: reporter [RNTST] Running test simple_test...
# MBE: input A =  731014105, input B =  175121917, output OUT = 18430647676078557813
# MBE: input A = 00101011100100100110001111011001, input B = 00001010011100000010010111111101, output OUT = 1111111111000110110100000110100101100001000010101000101001110101
# refmod: input A =  731014105, input B =  175121917, output OUT =    128016591421639285
# refmod: input A = 00101011100100100110001111011001, input B = 00001010011100000010010111111101, output OUT = 0000000111000110110011100110100101100001000010110000101001110101
# UVM_INFO @ 45: reporter [MISCMP] Miscompare for exp.data: lhs = 'h1c6ce69610b0a75 : rhs = 'hffc6d069610a8a75
# UVM_INFO @ 45: reporter [MISCMP] 1 Miscompare(s) for object tr@825 vs. exp@617
# UVM_WARNING @ 45: uvm_test_top.env_h.comp [Comparator Mismatch] 
# MBE: input A =   80379531, input B = 2702342644, output OUT =   289270628363980668
# MBE: input A = 00000100110010100111111010001011, input B = 10100001000100100111100111110100, output OUT = 0000010000000011101100100001101010010111100101101100111101111100
# refmod: input A =   80379531, input B = 2702342644, output OUT =    217213034326019964
# refmod: input A = 00000100110010100111111010001011, input B = 10100001000100100111100111110100, output OUT = 0000001100000011101100100001101010010111100101100100111101111100
# UVM_INFO @ 75: reporter [MISCMP] Miscompare for exp.data: lhs = 'h303b21a97964f7c : rhs = 'h403b21a9796cf7c
# UVM_INFO @ 75: reporter [MISCMP] 1 Miscompare(s) for object tr@825 vs. exp@617
# UVM_WARNING @ 75: uvm_test_top.env_h.comp [Comparator Mismatch] 
# MBE: input A =  260878708, input B = 3812952346, output OUT =   850600694590937544
# MBE: input A = 00001111100011001011000101110100, input B = 11100011010001010000100100011010, output OUT = 0000101111001101111100001101001100110110110010110001100111001000
# refmod: input A =  260878708, input B = 3812952346, output OUT =    994718081690048968
# refmod: input A = 00001111100011001011000101110100, input B = 11100011010001010000100100011010, output OUT = 0000110111001101111100101101001100110110110010110001100111001000
# UVM_INFO @ 105: reporter [MISCMP] Miscompare for exp.data: lhs = 'hdcdf2d336cb19c8 : rhs = 'hbcdf0d336cb19c8
# UVM_INFO @ 105: reporter [MISCMP] 1 Miscompare(s) for object tr@825 vs. exp@617
# UVM_WARNING @ 105: uvm_test_top.env_h.comp [Comparator Mismatch] 
# MBE: input A = 4264621708, input B = 4099804783, output OUT = 17556174070181957300
# MBE: input A = 11111110001100001111011010001100, input B = 11110100010111100000111001101111, output OUT = 1111001110100100000011110100110011011100000111101000111010110100
# refmod: input A = 4264621708, input B = 4099804783, output OUT =   -962627597565522252
# refmod: input A = 11111110001100001111011010001100, input B = 11110100010111100000111001101111, output OUT = 1111001010100100000011110100110011011100000111101000111010110100
# UVM_INFO @ 135: reporter [MISCMP] Miscompare for exp.data: lhs = 'hf2a40f4cdc1e8eb4 : rhs = 'hf3a40f4cdc1e8eb4
# UVM_INFO @ 135: reporter [MISCMP] 1 Miscompare(s) for object tr@825 vs. exp@617
# UVM_WARNING @ 135: uvm_test_top.env_h.comp [Comparator Mismatch] 
# MBE: input A = 2682128719, input B = 3715728877, output OUT =  9966063133015124259
# MBE: input A = 10011111110111100000100101001111, input B = 11011101011110011000010111101101, output OUT = 1000101001001110100100011001110111110100011110111010100100100011
# refmod: input A = 2682128719, input B = 3715728877, output OUT =  -8480680940690233053
# refmod: input A = 10011111110111100000100101001111, input B = 11011101011110011000010111101101, output OUT = 1000101001001110100100011001110111110100101110111010100100100011
# UVM_INFO @ 165: reporter [MISCMP] Miscompare for exp.data: lhs = 'h8a4e919df4bba923 : rhs = 'h8a4e919df47ba923
# UVM_INFO @ 165: reporter [MISCMP] 1 Miscompare(s) for object tr@825 vs. exp@617
# UVM_WARNING @ 165: uvm_test_top.env_h.comp [Comparator Mismatch] 
# MBE: input A =  140412694, input B = 1111608308, output OUT =    11968729123173112
# MBE: input A = 00001000010111101000011100010110, input B = 01000010010000011100101111110100, output OUT = 0000000000101010100001010111111011100111110011001011001011111000
# refmod: input A =  140412694, input B = 1111608308, output OUT =    156083917199061752
# refmod: input A = 00001000010111101000011100010110, input B = 01000010010000011100101111110100, output OUT = 0000001000101010100001010111111011100111110011010011001011111000
# UVM_INFO @ 195: reporter [MISCMP] Miscompare for exp.data: lhs = 'h22a857ee7cd32f8 : rhs = 'h2a857ee7ccb2f8
# UVM_INFO @ 195: reporter [MISCMP] 1 Miscompare(s) for object tr@825 vs. exp@617
# UVM_WARNING @ 195: uvm_test_top.env_h.comp [Comparator Mismatch] 
# MBE: input A = 3761234779, input B = 3947285453, output OUT = 14774609734426441951
# MBE: input A = 11100000001011111110001101011011, input B = 11101011010001101100101111001101, output OUT = 1100110100001001111101010100011000110011100001000011100011011111
# refmod: input A = 3761234779, input B = 3947285453, output OUT =  -3600076745245181729
# refmod: input A = 11100000001011111110001101011011, input B = 11101011010001101100101111001101, output OUT = 1100111000001001111101010100011000110011100001000011100011011111
# UVM_INFO @ 225: reporter [MISCMP] Miscompare for exp.data: lhs = 'hce09f546338438df : rhs = 'hcd09f546338438df
# UVM_INFO @ 225: reporter [MISCMP] 1 Miscompare(s) for object tr@825 vs. exp@617
# UVM_WARNING @ 225: uvm_test_top.env_h.comp [Comparator Mismatch] 
# MBE: input A = 2531376513, input B = 3371244592, output OUT =  8678004567842923568
# MBE: input A = 10010110111000011011110110000001, input B = 11001000111100010001110000110000, output OUT = 0111100001101110011101110010110100101001011111101010010000110000
# refmod: input A = 2531376513, input B = 3371244592, output OUT =   8533889379767067696
# refmod: input A = 10010110111000011011110110000001, input B = 11001000111100010001110000110000, output OUT = 0111011001101110011101110010110100101001011111101010010000110000
# UVM_INFO @ 255: reporter [MISCMP] Miscompare for exp.data: lhs = 'h766e772d297ea430 : rhs = 'h786e772d297ea430
# UVM_INFO @ 255: reporter [MISCMP] 1 Miscompare(s) for object tr@825 vs. exp@617
# UVM_WARNING @ 255: uvm_test_top.env_h.comp [Comparator Mismatch] 
# MBE: input A = 3872680796, input B = 3462746173, output OUT = 13410112804622849260
# MBE: input A = 11100110110101000110101101011100, input B = 11001110011001010101000000111101, output OUT = 1011101000011010010010101000101111000101011101100101010011101100
# refmod: input A = 3872680796, input B = 3462746173, output OUT =  -5036633468109957908
# refmod: input A = 11100110110101000110101101011100, input B = 11001110011001010101000000111101, output OUT = 1011101000011010010010001000101111000101011101100101010011101100
# UVM_INFO @ 285: reporter [MISCMP] Miscompare for exp.data: lhs = 'hba1a488bc57654ec : rhs = 'hba1a4a8bc57654ec
# UVM_INFO @ 285: reporter [MISCMP] 1 Miscompare(s) for object tr@825 vs. exp@617
# UVM_WARNING @ 285: uvm_test_top.env_h.comp [Comparator Mismatch] 
# MBE: input A = 2373230244, input B = 2938263881, output OUT =  6829059320142971076
# MBE: input A = 10001101011101001001111010100100, input B = 10101111001000100101100101001001, output OUT = 0101111011000101101100010100010100001111001100010100000011000100
# refmod: input A = 2373230244, input B = 2938263881, output OUT =   6973176707242016964
# refmod: input A = 10001101011101001001111010100100, input B = 10101111001000100101100101001001, output OUT = 0110000011000101101100110100010100001111001100000100000011000100
# UVM_INFO @ 315: reporter [MISCMP] Miscompare for exp.data: lhs = 'h60c5b3450f3040c4 : rhs = 'h5ec5b1450f3140c4
# UVM_INFO @ 315: reporter [MISCMP] 1 Miscompare(s) for object tr@825 vs. exp@617
# UVM_WARNING @ 315: uvm_test_top.env_h.comp [Comparator Mismatch] 
# MBE: input A = 1541776121, input B = 1428688626, output OUT =  2202718007911099746
# MBE: input A = 01011011111001011010001011111001, input B = 01010101001010000000111011110010, output OUT = 0001111010010001101000000101101110010001111001011010110101100010
# refmod: input A = 1541776121, input B = 1428688626, output OUT =   2202718007911099746
# refmod: input A = 01011011111001011010001011111001, input B = 01010101001010000000111011110010, output OUT = 0001111010010001101000000101101110010001111001011010110101100010
# UVM_INFO @ 345: uvm_test_top.env_h.comp [Comparator Match] 
# MBE: input A = 3393944429, input B = 3716857736, output OUT = 12470693418406864104
# MBE: input A = 11001010010010110111101101101101, input B = 11011101100010101011111110001000, output OUT = 1010110100010000110011011001011101101010111100010110010011101000
# refmod: input A = 3393944429, input B = 3716857736, output OUT =  -5831935467226798872
# refmod: input A = 11001010010010110111101101101101, input B = 11011101100010101011111110001000, output OUT = 1010111100010000110011011001011101101010111100011110010011101000
# UVM_INFO @ 375: reporter [MISCMP] Miscompare for exp.data: lhs = 'haf10cd976af1e4e8 : rhs = 'had10cd976af164e8
# UVM_INFO @ 375: reporter [MISCMP] 1 Miscompare(s) for object tr@825 vs. exp@617
# UVM_WARNING @ 375: uvm_test_top.env_h.comp [Comparator Mismatch] 
# MBE: input A = 1712994403, input B =  601358051, output OUT =   886007787486132681
# MBE: input A = 01100110000110100011100001100011, input B = 00100011110101111111111011100011, output OUT = 0000110001001011101110110110001101110001010101110011100111001001
# refmod: input A = 1712994403, input B =  601358051, output OUT =   1030122975561988553
# refmod: input A = 01100110000110100011100001100011, input B = 00100011110101111111111011100011, output OUT = 0000111001001011101110110110001101110001010101110011100111001001
# UVM_INFO @ 405: reporter [MISCMP] Miscompare for exp.data: lhs = 'he4bbb63715739c9 : rhs = 'hc4bbb63715739c9
# UVM_INFO @ 405: reporter [MISCMP] 1 Miscompare(s) for object tr@825 vs. exp@617
# UVM_WARNING @ 405: uvm_test_top.env_h.comp [Comparator Mismatch] 
# MBE: input A = 3547324387, input B =  350842963, output OUT =  1388671185756382873
# MBE: input A = 11010011011011111101111111100011, input B = 00010100111010010111000001010011, output OUT = 0001001101000101100011010001011000000000110101000110011010011001
# refmod: input A = 3547324387, input B =  350842963, output OUT =   1244553798657238681
# refmod: input A = 11010011011011111101111111100011, input B = 00010100111010010111000001010011, output OUT = 0001000101000101100010110001011000000000110100111110011010011001
# UVM_INFO @ 435: reporter [MISCMP] Miscompare for exp.data: lhs = 'h11458b1600d3e699 : rhs = 'h13458d1600d46699
# UVM_INFO @ 435: reporter [MISCMP] 1 Miscompare(s) for object tr@825 vs. exp@617
# UVM_WARNING @ 435: uvm_test_top.env_h.comp [Comparator Mismatch] 
# MBE: input A =   91952929, input B = 1965175865, output OUT =   252763469848009305
# MBE: input A = 00000101011110110001011100100001, input B = 01110101001000100011010000111001, output OUT = 0000001110000001111111110000100101100000011111000101101001011001
# refmod: input A =   91952929, input B = 1965175865, output OUT =    180703676786858585
# refmod: input A = 00000101011110110001011100100001, input B = 01110101001000100011010000111001, output OUT = 0000001010000001111111010000100101100000011111001101101001011001
# UVM_INFO @ 465: reporter [MISCMP] Miscompare for exp.data: lhs = 'h281fd09607cda59 : rhs = 'h381ff09607c5a59
# UVM_INFO @ 465: reporter [MISCMP] 1 Miscompare(s) for object tr@825 vs. exp@617
# UVM_WARNING @ 465: uvm_test_top.env_h.comp [Comparator Mismatch] 
# MBE: input A = 3072927006, input B = 2608252870, output OUT =  7942913088662079284
# MBE: input A = 10110111001010010010010100011110, input B = 10011011011101101100011111000110, output OUT = 0110111000111010111001010101111011101011100000010000011100110100
# refmod: input A = 3072927006, input B = 2608252870, output OUT =   8014970682700007220
# refmod: input A = 10110111001010010010010100011110, input B = 10011011011101101100011111000110, output OUT = 0110111100111010111001010101111011101011100000010000011100110100
# UVM_INFO @ 495: reporter [MISCMP] Miscompare for exp.data: lhs = 'h6f3ae55eeb810734 : rhs = 'h6e3ae55eeb810734
# UVM_INFO @ 495: reporter [MISCMP] 1 Miscompare(s) for object tr@825 vs. exp@617
# UVM_WARNING @ 495: uvm_test_top.env_h.comp [Comparator Mismatch] 
# MBE: input A =  876184097, input B =  614306907, output OUT =   538248141613913531
# MBE: input A = 00110100001110011000001000100001, input B = 00100100100111011001010001011011, output OUT = 0000011101111000001111011101010101000001111010010101010110111011
# refmod: input A =  876184097, input B =  614306907, output OUT =    538245942590657979
# refmod: input A = 00110100001110011000001000100001, input B = 00100100100111011001010001011011, output OUT = 0000011101111000001110111101010101000001111010010101010110111011
# UVM_INFO @ 525: reporter [MISCMP] Miscompare for exp.data: lhs = 'h7783bd541e955bb : rhs = 'h7783dd541e955bb
# UVM_INFO @ 525: reporter [MISCMP] 1 Miscompare(s) for object tr@825 vs. exp@617
# UVM_WARNING @ 525: uvm_test_top.env_h.comp [Comparator Mismatch] 
# MBE: input A = 1568767450, input B = 1075088082, output OUT =  1686563188924498132
# MBE: input A = 01011101100000010111110111011010, input B = 01000000000101001000101011010010, output OUT = 0001011101100111111000000100100011010111000110000100000011010100
# refmod: input A = 1568767450, input B = 1075088082, output OUT =   1686563188924530900
# refmod: input A = 01011101100000010111110111011010, input B = 01000000000101001000101011010010, output OUT = 0001011101100111111000000100100011010111000110001100000011010100
# UVM_INFO @ 555: reporter [MISCMP] Miscompare for exp.data: lhs = 'h1767e048d718c0d4 : rhs = 'h1767e048d71840d4
# UVM_INFO @ 555: reporter [MISCMP] 1 Miscompare(s) for object tr@825 vs. exp@617
# UVM_WARNING @ 555: uvm_test_top.env_h.comp [Comparator Mismatch] 
# MBE: input A = 1678953407, input B =  444558830, output OUT =   674335968206700178
# MBE: input A = 01100100000100101100101110111111, input B = 00011010011111110110110111101110, output OUT = 0000100101011011101110001111110110000100001110101011111010010010
# refmod: input A = 1678953407, input B =  444558830, output OUT =    746393562240433810
# refmod: input A = 01100100000100101100101110111111, input B = 00011010011111110110110111101110, output OUT = 0000101001011011101110001111110110000011111110101011111010010010
# UVM_INFO @ 585: reporter [MISCMP] Miscompare for exp.data: lhs = 'ha5bb8fd83fabe92 : rhs = 'h95bb8fd843abe92
# UVM_INFO @ 585: reporter [MISCMP] 1 Miscompare(s) for object tr@825 vs. exp@617
# UVM_WARNING @ 585: uvm_test_top.env_h.comp [Comparator Mismatch] 
# MBE: input A = 1221817855, input B = 4159049667, output OUT =  5009543548934476349
# MBE: input A = 01001000110100110111010111111111, input B = 11110111111001100000111111000011, output OUT = 0100010110000101011110010101000011101001000101101101001000111101
# refmod: input A = 1221817855, input B = 4159049667, output OUT =   5081601142972404285
# refmod: input A = 01001000110100110111010111111111, input B = 11110111111001100000111111000011, output OUT = 0100011010000101011110010101000011101001000101101101001000111101
# UVM_INFO @ 615: reporter [MISCMP] Miscompare for exp.data: lhs = 'h46857950e916d23d : rhs = 'h45857950e916d23d
# UVM_INFO @ 615: reporter [MISCMP] 1 Miscompare(s) for object tr@825 vs. exp@617
# UVM_WARNING @ 615: uvm_test_top.env_h.comp [Comparator Mismatch] 
# MBE: input A = 2630731409, input B =   42791131, output OUT =    40516577333661195
# MBE: input A = 10011100110011011100011010010001, input B = 00000010100011001111000011011011, output OUT = 0000000010001111111100011001110011000111011111001100111000001011
# refmod: input A = 2630731409, input B =   42791131, output OUT =    112571972348333579
# refmod: input A = 10011100110011011100011010010001, input B = 00000010100011001111000011011011, output OUT = 0000000110001111111011111001110011000111011111001100111000001011
# UVM_INFO @ 645: reporter [MISCMP] Miscompare for exp.data: lhs = 'h18fef9cc77cce0b : rhs = 'h8ff19cc77cce0b
# UVM_INFO @ 645: reporter [MISCMP] 1 Miscompare(s) for object tr@825 vs. exp@617
# UVM_WARNING @ 645: uvm_test_top.env_h.comp [Comparator Mismatch] 
# MBE: input A = 2606837867, input B = 3476886790, output OUT =  8919564955372415362
# MBE: input A = 10011011011000010011000001101011, input B = 11001111001111010001010100000110, output OUT = 0111101111001000101010010001000110101011111111101110100110000010
# refmod: input A = 2606837867, input B = 3476886790, output OUT =   9063680143444076930
# refmod: input A = 10011011011000010011000001101011, input B = 11001111001111010001010100000110, output OUT = 0111110111001000101010010001000110101011101111101110100110000010
# UVM_INFO @ 675: reporter [MISCMP] Miscompare for exp.data: lhs = 'h7dc8a911abbee982 : rhs = 'h7bc8a911abfee982
# UVM_INFO @ 675: reporter [MISCMP] 1 Miscompare(s) for object tr@825 vs. exp@617
# UVM_WARNING @ 675: uvm_test_top.env_h.comp [Comparator Mismatch] 
# MBE: input A = 3413573445, input B = 2073383015, output OUT =  6933530013242213571
# MBE: input A = 11001011011101101111111101000101, input B = 01111011100101010101000001100111, output OUT = 0110000000111000110110001100111111000110110011111100010011000011
# refmod: input A = 3413573445, input B = 2073383015, output OUT =   7077645201318036675
# refmod: input A = 11001011011101101111111101000101, input B = 01111011100101010101000001100111, output OUT = 0110001000111000110110001100111111000110110011110100010011000011
# UVM_INFO @ 705: reporter [MISCMP] Miscompare for exp.data: lhs = 'h6238d8cfc6cf44c3 : rhs = 'h6038d8cfc6cfc4c3
# UVM_INFO @ 705: reporter [MISCMP] 1 Miscompare(s) for object tr@825 vs. exp@617
# UVM_WARNING @ 705: uvm_test_top.env_h.comp [Comparator Mismatch] 
# MBE: input A = 2799892819, input B = 3816473543, output OUT = 10541601678873331845
# MBE: input A = 10100110111000101111100101010011, input B = 11100011011110101100001111000111, output OUT = 1001001001001011010010101110000000001000111010000000100010000101
# refmod: input A = 2799892819, input B = 3816473543, output OUT =  -7761027206760363899
# refmod: input A = 10100110111000101111100101010011, input B = 11100011011110101100001111000111, output OUT = 1001010001001011010010101110000000001000111010000000100010000101
# UVM_INFO @ 735: reporter [MISCMP] Miscompare for exp.data: lhs = 'h944b4ae008e80885 : rhs = 'h924b4ae008e80885
# UVM_INFO @ 735: reporter [MISCMP] 1 Miscompare(s) for object tr@825 vs. exp@617
# UVM_WARNING @ 735: uvm_test_top.env_h.comp [Comparator Mismatch] 
# MBE: input A = 3038299759, input B = 3893807004, output OUT = 11974668069917373604
# MBE: input A = 10110101000110001100011001101111, input B = 11101000000101101100011110011100, output OUT = 1010011000101110100100010010101001000010101000110011010010100100
# refmod: input A = 3038299759, input B = 3893807004, output OUT =  -6616191191863839580
# refmod: input A = 10110101000110001100011001101111, input B = 11101000000101101100011110011100, output OUT = 1010010000101110100100010010101001000010111000110011010010100100
# UVM_INFO @ 765: reporter [MISCMP] Miscompare for exp.data: lhs = 'ha42e912a42e334a4 : rhs = 'ha62e912a42a334a4
# UVM_INFO @ 765: reporter [MISCMP] 1 Miscompare(s) for object tr@825 vs. exp@617
# UVM_WARNING @ 765: uvm_test_top.env_h.comp [Comparator Mismatch] 
# MBE: input A = 1778436677, input B = 2353557030, output OUT =  4401824925676940350
# MBE: input A = 01101010000000001100101001000101, input B = 10001100010010000110111000100110, output OUT = 0011110100010110011011000111001010110010011011110010110000111110
# refmod: input A = 1778436677, input B = 2353557030, output OUT =   4185652143563189310
# refmod: input A = 01101010000000001100101001000101, input B = 10001100010010000110111000100110, output OUT = 0011101000010110011011000111001010110010011011111010110000111110
# UVM_INFO @ 795: reporter [MISCMP] Miscompare for exp.data: lhs = 'h3a166c72b26fac3e : rhs = 'h3d166c72b26f2c3e
# UVM_INFO @ 795: reporter [MISCMP] 1 Miscompare(s) for object tr@825 vs. exp@617
# UVM_WARNING @ 795: uvm_test_top.env_h.comp [Comparator Mismatch] 
# MBE: input A = 3087568070, input B =  357238882, output OUT =  1247116752524809164
# MBE: input A = 10111000000010001000110011000110, input B = 00010101010010110000100001100010, output OUT = 0001000101001110101001100001010000110011101011100001001111001100
# refmod: input A = 3087568070, input B =  357238882, output OUT =   1102999365425697740
# refmod: input A = 10111000000010001000110011000110, input B = 00010101010010110000100001100010, output OUT = 0000111101001110101001000001010000110011101011100001001111001100
# UVM_INFO @ 825: reporter [MISCMP] Miscompare for exp.data: lhs = 'hf4ea41433ae13cc : rhs = 'h114ea61433ae13cc
# UVM_INFO @ 825: reporter [MISCMP] 1 Miscompare(s) for object tr@825 vs. exp@617
# UVM_WARNING @ 825: uvm_test_top.env_h.comp [Comparator Mismatch] 
# MBE: input A = 3913605622, input B = 1385076643, output OUT =  5348586142907726242
# MBE: input A = 11101001010001001110000111110110, input B = 01010010100011101001011110100011, output OUT = 0100101000111001111111101100001001001010100101110111100110100010
# refmod: input A = 3913605622, input B = 1385076643, output OUT =   5420643736945686946
# refmod: input A = 11101001010001001110000111110110, input B = 01010010100011101001011110100011, output OUT = 0100101100111001111111101100001001001010100101111111100110100010
# UVM_INFO @ 855: reporter [MISCMP] Miscompare for exp.data: lhs = 'h4b39fec24a97f9a2 : rhs = 'h4a39fec24a9779a2
# UVM_INFO @ 855: reporter [MISCMP] 1 Miscompare(s) for object tr@825 vs. exp@617
# UVM_WARNING @ 855: uvm_test_top.env_h.comp [Comparator Mismatch] 
# MBE: input A = 2067343682, input B =  977174398, output OUT =  1948097723879591036
# MBE: input A = 01111011001110010010100101000010, input B = 00111010001111100111111101111110, output OUT = 0001101100001001000010001000111011110011100101110000110001111100
# refmod: input A = 2067343682, input B =  977174398, output OUT =   2020155317917453436
# refmod: input A = 01111011001110010010100101000010, input B = 00111010001111100111111101111110, output OUT = 0001110000001001000010001000111011110011100101100000110001111100
# UVM_INFO @ 885: reporter [MISCMP] Miscompare for exp.data: lhs = 'h1c09088ef3960c7c : rhs = 'h1b09088ef3970c7c
# UVM_INFO @ 885: reporter [MISCMP] 1 Miscompare(s) for object tr@825 vs. exp@617
# UVM_WARNING @ 885: uvm_test_top.env_h.comp [Comparator Mismatch] 
# MBE: input A =  378808866, input B = 1032434645, output OUT =   607268179205313610
# MBE: input A = 00010110100101000010101000100010, input B = 00111101100010011011001111010101, output OUT = 0000100001101101011100110011000100001000111011100101010001001010
# refmod: input A =  378808866, input B = 1032434645, output OUT =    391095397091562570
# refmod: input A = 00010110100101000010101000100010, input B = 00111101100010011011001111010101, output OUT = 0000010101101101011100110011000100001000111011101101010001001010
# UVM_INFO @ 915: reporter [MISCMP] Miscompare for exp.data: lhs = 'h56d733108eed44a : rhs = 'h86d733108ee544a
# UVM_INFO @ 915: reporter [MISCMP] 1 Miscompare(s) for object tr@825 vs. exp@617
# UVM_WARNING @ 915: uvm_test_top.env_h.comp [Comparator Mismatch] 
# MBE: input A = 4125287197, input B = 2255869364, output OUT =  9234051411375772004
# MBE: input A = 11110101111000101110001100011101, input B = 10000110011101011101010110110100, output OUT = 1000000000100101111100001101010110100100101111110101000101100100
# refmod: input A = 4125287197, input B = 2255869364, output OUT =  -9140635068295818908
# refmod: input A = 11110101111000101110001100011101, input B = 10000110011101011101010110110100, output OUT = 1000000100100101111100001101010110100100101111111101000101100100
# UVM_INFO @ 945: reporter [MISCMP] Miscompare for exp.data: lhs = 'h8125f0d5a4bfd164 : rhs = 'h8025f0d5a4bf5164
# UVM_INFO @ 945: reporter [MISCMP] 1 Miscompare(s) for object tr@825 vs. exp@617
# UVM_WARNING @ 945: uvm_test_top.env_h.comp [Comparator Mismatch] 
# MBE: input A =  785484068, input B = 3294069295, output OUT =  2515381356072629660
# MBE: input A = 00101110110100011000100100100100, input B = 11000100010101111000001000101111, output OUT = 0010001011101000011011100000010000101011010110010111010110011100
# refmod: input A =  785484068, input B = 3294069295, output OUT =   2587438950110492060
# refmod: input A = 00101110110100011000100100100100, input B = 11000100010101111000001000101111, output OUT = 0010001111101000011011100000010000101011010110000111010110011100
# UVM_INFO @ 975: reporter [MISCMP] Miscompare for exp.data: lhs = 'h23e86e042b58759c : rhs = 'h22e86e042b59759c
# UVM_INFO @ 975: reporter [MISCMP] 1 Miscompare(s) for object tr@825 vs. exp@617
# UVM_WARNING @ 975: uvm_test_top.env_h.comp [Comparator Mismatch] 
# MBE: input A = 3061458211, input B = 2837765930, output OUT =  8759759401332544702
# MBE: input A = 10110110011110100010010100100011, input B = 10101001001001001101111100101010, output OUT = 0111100110010000111010101100001110101010010100001001010010111110
# refmod: input A = 3061458211, input B = 2837765930, output OUT =   8687701807294551230
# refmod: input A = 10110110011110100010010100100011, input B = 10101001001001001101111100101010, output OUT = 0111100010010000111010101100001110101010010011111001010010111110
# UVM_INFO @ 1005: reporter [MISCMP] Miscompare for exp.data: lhs = 'h7890eac3aa4f94be : rhs = 'h7990eac3aa5094be
# UVM_INFO @ 1005: reporter [MISCMP] 1 Miscompare(s) for object tr@825 vs. exp@617
# UVM_WARNING @ 1005: uvm_test_top.env_h.comp [Comparator Mismatch] 
# MBE: input A = 1544876891, input B = 1738059493, output OUT =  2540972757843085927
# MBE: input A = 01011100000101001111001101011011, input B = 01100111100110001010111011100101, output OUT = 0010001101000011010110010100001010110111001011101000101001100111
# refmod: input A = 1544876891, input B = 1738059493, output OUT =   2685087945918876263
# refmod: input A = 01011100000101001111001101011011, input B = 01100111100110001010111011100101, output OUT = 0010010101000011010110010100001010110111001011011000101001100111
# UVM_INFO @ 1035: reporter [MISCMP] Miscompare for exp.data: lhs = 'h25435942b72d8a67 : rhs = 'h23435942b72e8a67
# UVM_INFO @ 1035: reporter [MISCMP] 1 Miscompare(s) for object tr@825 vs. exp@617
# UVM_WARNING @ 1035: uvm_test_top.env_h.comp [Comparator Mismatch] 
# MBE: input A = 1961337323, input B = 2703619792, output OUT =  5302710405251064048
# MBE: input A = 01110100111001111010000111101011, input B = 10100001001001011111011011010000, output OUT = 0100100110010111000000110000010011000011110000011110000011110000
# refmod: input A = 1961337323, input B = 2703619792, output OUT =   5302710405251096816
# refmod: input A = 01110100111001111010000111101011, input B = 10100001001001011111011011010000, output OUT = 0100100110010111000000110000010011000011110000100110000011110000
# UVM_INFO @ 1065: reporter [MISCMP] Miscompare for exp.data: lhs = 'h49970304c3c260f0 : rhs = 'h49970304c3c1e0f0
# UVM_INFO @ 1065: reporter [MISCMP] 1 Miscompare(s) for object tr@825 vs. exp@617
# UVM_WARNING @ 1065: uvm_test_top.env_h.comp [Comparator Mismatch] 
# MBE: input A = 1727143128, input B =  724064169, output OUT =  1106447265643524760
# MBE: input A = 01100110111100100001110011011000, input B = 00101011001010000101011110101001, output OUT = 0000111101011010111000111110110100000111011000100111001010011000
# refmod: input A = 1727143128, input B =  724064169, output OUT =   1250562453719380632
# refmod: input A = 01100110111100100001110011011000, input B = 00101011001010000101011110101001, output OUT = 0001000101011010111000111110110100000111011000100111001010011000
# UVM_INFO @ 1095: reporter [MISCMP] Miscompare for exp.data: lhs = 'h115ae3ed07627298 : rhs = 'hf5ae3ed07627298
# UVM_INFO @ 1095: reporter [MISCMP] 1 Miscompare(s) for object tr@825 vs. exp@617
# UVM_WARNING @ 1095: uvm_test_top.env_h.comp [Comparator Mismatch] 
# MBE: input A =  246654637, input B = 1595147461, output OUT =   249335329878570785
# MBE: input A = 00001110101100111010011010101101, input B = 01011111000101000000010011000101, output OUT = 0000001101110101110100010010100101010111010111011111011100100001
# refmod: input A =  246654637, input B = 1595147461, output OUT =    393450517954426657
# refmod: input A = 00001110101100111010011010101101, input B = 01011111000101000000010011000101, output OUT = 0000010101110101110100010010100101010111010111011111011100100001
# UVM_INFO @ 1125: reporter [MISCMP] Miscompare for exp.data: lhs = 'h575d129575df721 : rhs = 'h375d129575df721
# UVM_INFO @ 1125: reporter [MISCMP] 1 Miscompare(s) for object tr@825 vs. exp@617
# UVM_WARNING @ 1125: uvm_test_top.env_h.comp [Comparator Mismatch] 
# MBE: input A = 1646293169, input B = 3201576091, output OUT =  5126617660566939435
# MBE: input A = 01100010001000000111000010110001, input B = 10111110110101000010110010011011, output OUT = 0100011100100101011001111001100110101101010101100010011100101011
# refmod: input A = 1646293169, input B = 3201576091, output OUT =   5270732848647022379
# refmod: input A = 01100010001000000111000010110001, input B = 10111110110101000010110010011011, output OUT = 0100100100100101011001111001100110101101100101101010011100101011
